<?xml version="1.0" encoding="UTF-8" standalone="no"?><svg xmlns="http://www.w3.org/2000/svg" xmlns:xlink="http://www.w3.org/1999/xlink" contentScriptType="application/ecmascript" contentStyleType="text/css" height="446px" preserveAspectRatio="none" style="width:382px;height:446px;" version="1.1" viewBox="0 0 382 446" width="382px" zoomAndPan="magnify"><defs><filter height="300%" id="f1jxyvqmpxperf" width="300%" x="-1" y="-1"><feGaussianBlur result="blurOut" stdDeviation="2.0"/><feColorMatrix in="blurOut" result="blurOut2" type="matrix" values="0 0 0 0 0 0 0 0 0 0 0 0 0 0 0 0 0 0 .4 0"/><feOffset dx="4.0" dy="4.0" in="blurOut2" result="blurOut3"/><feBlend in="SourceGraphic" in2="blurOut3" mode="normal"/></filter></defs><g><rect fill="#FFFFFF" filter="url(#f1jxyvqmpxperf)" height="319.1953" style="stroke: #A80036; stroke-width: 1.0;" width="10" x="257.5" y="69.2969"/><rect fill="#FFFFFF" filter="url(#f1jxyvqmpxperf)" height="209.7969" style="stroke: #A80036; stroke-width: 1.0;" width="10" x="262.5" y="178.6953"/><rect fill="#FFFFFF" filter="url(#f1jxyvqmpxperf)" height="89.3984" style="stroke: #000000; stroke-width: 2.0;" width="292" x="13" y="227.9609"/><line style="stroke: #A80036; stroke-width: 1.0; stroke-dasharray: 5.0,5.0;" x1="51" x2="51" y1="38.2969" y2="406.625"/><line style="stroke: #A80036; stroke-width: 1.0; stroke-dasharray: 5.0,5.0;" x1="262" x2="262" y1="38.2969" y2="406.625"/><rect fill="#FEFECE" filter="url(#f1jxyvqmpxperf)" height="30.2969" style="stroke: #A80036; stroke-width: 1.5;" width="53" x="23" y="3"/><text fill="#000000" font-family="sans-serif" font-size="14" lengthAdjust="spacingAndGlyphs" textLength="39" x="30" y="22.9951">Client</text><rect fill="#FEFECE" filter="url(#f1jxyvqmpxperf)" height="30.2969" style="stroke: #A80036; stroke-width: 1.5;" width="53" x="23" y="405.625"/><text fill="#000000" font-family="sans-serif" font-size="14" lengthAdjust="spacingAndGlyphs" textLength="39" x="30" y="425.6201">Client</text><rect fill="#FEFECE" filter="url(#f1jxyvqmpxperf)" height="30.2969" style="stroke: #A80036; stroke-width: 1.5;" width="61" x="230" y="3"/><text fill="#000000" font-family="sans-serif" font-size="14" lengthAdjust="spacingAndGlyphs" textLength="47" x="237" y="22.9951">Device</text><rect fill="#FEFECE" filter="url(#f1jxyvqmpxperf)" height="30.2969" style="stroke: #A80036; stroke-width: 1.5;" width="61" x="230" y="405.625"/><text fill="#000000" font-family="sans-serif" font-size="14" lengthAdjust="spacingAndGlyphs" textLength="47" x="237" y="425.6201">Device</text><rect fill="#FFFFFF" filter="url(#f1jxyvqmpxperf)" height="319.1953" style="stroke: #A80036; stroke-width: 1.0;" width="10" x="257.5" y="69.2969"/><rect fill="#FFFFFF" filter="url(#f1jxyvqmpxperf)" height="209.7969" style="stroke: #A80036; stroke-width: 1.0;" width="10" x="262.5" y="178.6953"/><polygon fill="#A80036" points="245.5,65.2969,255.5,69.2969,245.5,73.2969,249.5,69.2969" style="stroke: #A80036; stroke-width: 1.0;"/><line style="stroke: #A80036; stroke-width: 1.0;" x1="51.5" x2="251.5" y1="69.2969" y2="69.2969"/><text fill="#000000" font-family="sans-serif" font-size="13" lengthAdjust="spacingAndGlyphs" textLength="112" x="58.5" y="64.3638">iq[type=get](req)</text><polygon fill="#A80036" points="62.5,94.4297,52.5,98.4297,62.5,102.4297,58.5,98.4297" style="stroke: #A80036; stroke-width: 1.0;"/><line style="stroke: #A80036; stroke-width: 1.0;" x1="56.5" x2="256.5" y1="98.4297" y2="98.4297"/><text fill="#000000" font-family="sans-serif" font-size="13" lengthAdjust="spacingAndGlyphs" textLength="165" x="68.5" y="93.4966">iq[type=result](accepted)</text><rect fill="#EEEEEE" filter="url(#f1jxyvqmpxperf)" height="3" style="stroke: #EEEEEE; stroke-width: 1.0;" width="367.5" x="3" y="127.1289"/><line style="stroke: #000000; stroke-width: 1.0;" x1="3" x2="370.5" y1="127.1289" y2="127.1289"/><line style="stroke: #000000; stroke-width: 1.0;" x1="3" x2="370.5" y1="130.1289" y2="130.1289"/><rect fill="#EEEEEE" filter="url(#f1jxyvqmpxperf)" height="23.1328" style="stroke: #000000; stroke-width: 2.0;" width="60" x="156.75" y="116.5625"/><text fill="#000000" font-family="sans-serif" font-size="13" font-weight="bold" lengthAdjust="spacingAndGlyphs" textLength="41" x="162.75" y="132.6294">Delay</text><line style="stroke: #A80036; stroke-width: 1.0;" x1="267.5" x2="314.5" y1="165.8281" y2="165.8281"/><line style="stroke: #A80036; stroke-width: 1.0;" x1="314.5" x2="314.5" y1="165.8281" y2="178.8281"/><line style="stroke: #A80036; stroke-width: 1.0;" x1="273.5" x2="314.5" y1="178.8281" y2="178.8281"/><polygon fill="#A80036" points="283.5,174.8281,273.5,178.8281,283.5,182.8281,279.5,178.8281" style="stroke: #A80036; stroke-width: 1.0;"/><text fill="#000000" font-family="sans-serif" font-size="13" lengthAdjust="spacingAndGlyphs" textLength="84" x="279.5" y="160.7622">start readout</text><polygon fill="#A80036" points="62.5,208.8281,52.5,212.8281,62.5,216.8281,58.5,212.8281" style="stroke: #A80036; stroke-width: 1.0;"/><line style="stroke: #A80036; stroke-width: 1.0;" x1="56.5" x2="261.5" y1="212.8281" y2="212.8281"/><text fill="#000000" font-family="sans-serif" font-size="13" lengthAdjust="spacingAndGlyphs" textLength="115" x="68.5" y="207.895">message(started)</text><rect fill="none" height="89.3984" style="stroke: #000000; stroke-width: 2.0;" width="292" x="13" y="227.9609"/><polygon fill="#EEEEEE" points="13,227.9609,283,227.9609,283,234.9609,273,244.9609,13,244.9609,13,227.9609" style="stroke: #000000; stroke-width: 2.0;"/><text fill="#000000" font-family="sans-serif" font-size="13" font-weight="bold" lengthAdjust="spacingAndGlyphs" textLength="225" x="28" y="241.0278">Variable number of fragments</text><rect fill="#EEEEEE" filter="url(#f1jxyvqmpxperf)" height="3" style="stroke: #EEEEEE; stroke-width: 1.0;" width="367.5" x="3" y="265.6602"/><line style="stroke: #000000; stroke-width: 1.0;" x1="3" x2="370.5" y1="265.6602" y2="265.6602"/><line style="stroke: #000000; stroke-width: 1.0;" x1="3" x2="370.5" y1="268.6602" y2="268.6602"/><rect fill="#EEEEEE" filter="url(#f1jxyvqmpxperf)" height="23.1328" style="stroke: #000000; stroke-width: 2.0;" width="60" x="156.75" y="255.0938"/><text fill="#000000" font-family="sans-serif" font-size="13" font-weight="bold" lengthAdjust="spacingAndGlyphs" textLength="41" x="162.75" y="271.1606">Delay</text><polygon fill="#A80036" points="62.5,305.2266,52.5,309.2266,62.5,313.2266,58.5,309.2266" style="stroke: #A80036; stroke-width: 1.0;"/><line style="stroke: #A80036; stroke-width: 1.0;" x1="56.5" x2="261.5" y1="309.2266" y2="309.2266"/><text fill="#000000" font-family="sans-serif" font-size="13" lengthAdjust="spacingAndGlyphs" textLength="178" x="68.5" y="304.2935">message(resp[more=true])</text><rect fill="#EEEEEE" filter="url(#f1jxyvqmpxperf)" height="3" style="stroke: #EEEEEE; stroke-width: 1.0;" width="367.5" x="3" y="344.9258"/><line style="stroke: #000000; stroke-width: 1.0;" x1="3" x2="370.5" y1="344.9258" y2="344.9258"/><line style="stroke: #000000; stroke-width: 1.0;" x1="3" x2="370.5" y1="347.9258" y2="347.9258"/><rect fill="#EEEEEE" filter="url(#f1jxyvqmpxperf)" height="23.1328" style="stroke: #000000; stroke-width: 2.0;" width="60" x="156.75" y="334.3594"/><text fill="#000000" font-family="sans-serif" font-size="13" font-weight="bold" lengthAdjust="spacingAndGlyphs" textLength="41" x="162.75" y="350.4263">Delay</text><polygon fill="#A80036" points="62.5,384.4922,52.5,388.4922,62.5,392.4922,58.5,388.4922" style="stroke: #A80036; stroke-width: 1.0;"/><line style="stroke: #A80036; stroke-width: 1.0;" x1="56.5" x2="261.5" y1="388.4922" y2="388.4922"/><text fill="#000000" font-family="sans-serif" font-size="13" lengthAdjust="spacingAndGlyphs" textLength="182" x="68.5" y="383.5591">message(resp[more=false])</text><!--
@startuml
Client -> Device : iq[type=get](req)
Activate Device

Client <- Device : iq[type=result](accepted)

== Delay ==

Device -> Device : start readout
Activate Device

Client <- Device : message(started)

group Variable number of fragments

    == Delay ==

    Client <- Device : message(resp[more=true])

end

== Delay ==

Client <- Device : message(resp[more=false])

Deactivate Device
Deactivate Device
@enduml

PlantUML version 1.2017.18beta8(Unknown compile time)
(GPL source distribution)
Java Runtime: Java(TM) SE Runtime Environment
JVM: Java HotSpot(TM) 64-Bit Server VM
Java Version: 1.7.0_25-b15
Operating System: Linux
Default Encoding: UTF-8
Language: en
Country: US
--></g></svg>