<?xml version="1.0" encoding="UTF-8" standalone="no"?><svg xmlns="http://www.w3.org/2000/svg" xmlns:xlink="http://www.w3.org/1999/xlink" contentScriptType="application/ecmascript" contentStyleType="text/css" height="271px" preserveAspectRatio="none" style="width:337px;height:271px;" version="1.1" viewBox="0 0 337 271" width="337px" zoomAndPan="magnify"><defs><filter height="300%" id="f1rkxdfbmw70un" width="300%" x="-1" y="-1"><feGaussianBlur result="blurOut" stdDeviation="2.0"/><feColorMatrix in="blurOut" result="blurOut2" type="matrix" values="0 0 0 0 0 0 0 0 0 0 0 0 0 0 0 0 0 0 .4 0"/><feOffset dx="4.0" dy="4.0" in="blurOut2" result="blurOut3"/><feBlend in="SourceGraphic" in2="blurOut3" mode="normal"/></filter></defs><g><rect fill="#FFFFFF" filter="url(#f1rkxdfbmw70un)" height="143.5313" style="stroke: #A80036; stroke-width: 1.0;" width="10" x="212.5" y="69.2969"/><rect fill="#FFFFFF" filter="url(#f1rkxdfbmw70un)" height="106.3984" style="stroke: #A80036; stroke-width: 1.0;" width="10" x="217.5" y="106.4297"/><line style="stroke: #A80036; stroke-width: 1.0; stroke-dasharray: 5.0,5.0;" x1="36" x2="36" y1="38.2969" y2="230.9609"/><line style="stroke: #A80036; stroke-width: 1.0; stroke-dasharray: 5.0,5.0;" x1="217" x2="217" y1="38.2969" y2="230.9609"/><rect fill="#FEFECE" filter="url(#f1rkxdfbmw70un)" height="30.2969" style="stroke: #A80036; stroke-width: 1.5;" width="53" x="8" y="3"/><text fill="#000000" font-family="sans-serif" font-size="14" lengthAdjust="spacingAndGlyphs" textLength="39" x="15" y="22.9951">Client</text><rect fill="#FEFECE" filter="url(#f1rkxdfbmw70un)" height="30.2969" style="stroke: #A80036; stroke-width: 1.5;" width="53" x="8" y="229.9609"/><text fill="#000000" font-family="sans-serif" font-size="14" lengthAdjust="spacingAndGlyphs" textLength="39" x="15" y="249.9561">Client</text><rect fill="#FEFECE" filter="url(#f1rkxdfbmw70un)" height="30.2969" style="stroke: #A80036; stroke-width: 1.5;" width="61" x="185" y="3"/><text fill="#000000" font-family="sans-serif" font-size="14" lengthAdjust="spacingAndGlyphs" textLength="47" x="192" y="22.9951">Device</text><rect fill="#FEFECE" filter="url(#f1rkxdfbmw70un)" height="30.2969" style="stroke: #A80036; stroke-width: 1.5;" width="61" x="185" y="229.9609"/><text fill="#000000" font-family="sans-serif" font-size="14" lengthAdjust="spacingAndGlyphs" textLength="47" x="192" y="249.9561">Device</text><rect fill="#FFFFFF" filter="url(#f1rkxdfbmw70un)" height="143.5313" style="stroke: #A80036; stroke-width: 1.0;" width="10" x="212.5" y="69.2969"/><rect fill="#FFFFFF" filter="url(#f1rkxdfbmw70un)" height="106.3984" style="stroke: #A80036; stroke-width: 1.0;" width="10" x="217.5" y="106.4297"/><polygon fill="#A80036" points="200.5,65.2969,210.5,69.2969,200.5,73.2969,204.5,69.2969" style="stroke: #A80036; stroke-width: 1.0;"/><line style="stroke: #A80036; stroke-width: 1.0;" x1="36.5" x2="206.5" y1="69.2969" y2="69.2969"/><text fill="#000000" font-family="sans-serif" font-size="13" lengthAdjust="spacingAndGlyphs" textLength="112" x="43.5" y="64.3638">iq[type=get](req)</text><line style="stroke: #A80036; stroke-width: 1.0;" x1="222.5" x2="269.5" y1="93.5625" y2="93.5625"/><line style="stroke: #A80036; stroke-width: 1.0;" x1="269.5" x2="269.5" y1="93.5625" y2="106.5625"/><line style="stroke: #A80036; stroke-width: 1.0;" x1="228.5" x2="269.5" y1="106.5625" y2="106.5625"/><polygon fill="#A80036" points="238.5,102.5625,228.5,106.5625,238.5,110.5625,234.5,106.5625" style="stroke: #A80036; stroke-width: 1.0;"/><text fill="#000000" font-family="sans-serif" font-size="13" lengthAdjust="spacingAndGlyphs" textLength="84" x="234.5" y="88.4966">start readout</text><polygon fill="#A80036" points="47.5,136.5625,37.5,140.5625,47.5,144.5625,43.5,140.5625" style="stroke: #A80036; stroke-width: 1.0;"/><line style="stroke: #A80036; stroke-width: 1.0;" x1="41.5" x2="216.5" y1="140.5625" y2="140.5625"/><text fill="#000000" font-family="sans-serif" font-size="13" lengthAdjust="spacingAndGlyphs" textLength="152" x="53.5" y="135.6294">iq[type=result](started)</text><rect fill="#EEEEEE" filter="url(#f1rkxdfbmw70un)" height="3" style="stroke: #EEEEEE; stroke-width: 1.0;" width="322.5" x="3" y="169.2617"/><line style="stroke: #000000; stroke-width: 1.0;" x1="3" x2="325.5" y1="169.2617" y2="169.2617"/><line style="stroke: #000000; stroke-width: 1.0;" x1="3" x2="325.5" y1="172.2617" y2="172.2617"/><rect fill="#EEEEEE" filter="url(#f1rkxdfbmw70un)" height="23.1328" style="stroke: #000000; stroke-width: 2.0;" width="60" x="134.25" y="158.6953"/><text fill="#000000" font-family="sans-serif" font-size="13" font-weight="bold" lengthAdjust="spacingAndGlyphs" textLength="41" x="140.25" y="174.7622">Delay</text><polygon fill="#A80036" points="47.5,208.8281,37.5,212.8281,47.5,216.8281,43.5,212.8281" style="stroke: #A80036; stroke-width: 1.0;"/><line style="stroke: #A80036; stroke-width: 1.0;" x1="41.5" x2="216.5" y1="212.8281" y2="212.8281"/><text fill="#000000" font-family="sans-serif" font-size="13" lengthAdjust="spacingAndGlyphs" textLength="97" x="53.5" y="207.895">message(resp)</text><!--
@startuml
Client -> Device : iq[type=get](req)
Activate Device

Device -> Device : start readout
Activate Device

Client <- Device : iq[type=result](started)

== Delay ==

Client <- Device : message(resp)
Deactivate Device
Deactivate Device
@enduml

PlantUML version 1.2017.18beta8(Unknown compile time)
(GPL source distribution)
Java Runtime: Java(TM) SE Runtime Environment
JVM: Java HotSpot(TM) 64-Bit Server VM
Java Version: 1.7.0_25-b15
Operating System: Linux
Default Encoding: UTF-8
Language: en
Country: US
--></g></svg>